{"componentChunkName":"component---src-templates-category-js","path":"/preview/custom-clothing/special-occasion","result":{"data":{"allAvettiCategory":{"nodes":[{"cid":"65886","url":"custom-clothing/special-occasion","name":"Special Occasion","longdesc":"&lt;p&gt;Your special occasion calls for a custom made evening gown or fancy cocktail dress. What to wear as a wedding guest? We&amp;rsquo;ve got made-to-measure formal dresses plus prom dresses and cocktail wear. One-of-a-kind creations make you feel like royalty!&lt;/p&gt;","meta":{"metadescription":"Shop our completely made-to-measure selection of custom made evening gowns, wedding attendee dresses, prom dresses, cocktail dresses and custom made special occasion dresses.","metakeywords":"Custom Made Special Occasion Dresses Custom Made Evening Gown"},"image":"/20180730431/assets/category/images/New_Banner_Image_Special_Occasion.jpg","itemsCount":"16","numberOfPages":"2","description":"Custom Made Special Occasion Fashions","itemsFirstPage":[{"id":279578,"title":"A Kiss of Black Skirt","code":"AINYQSRTQ0","desc":"Custom made long skirt with pleats","currency_sign":"$","image":"store/20180522154/assets/items/images/AINYQSRTQ0.jpg","itemLargeImage":"store/20180522154/assets/items/largeimages/AINYQSRTQ0.jpg","price":{"list_price":null,"value":{"integer":"111","decimal":"60"}},"url":"product/custom-clothing/dresses/a-kiss-of-black-skirt-ainyqsrtq0","properties":{"Sys_Num_Images":"2"}},{"id":279574,"title":"Starlight, Starshine Dress","code":"AIN7NSW9K2","desc":"Custom made midi dress with Chantilly lace","currency_sign":"$","image":"store/20180522154/assets/items/images/AIN7NSW9K2.jpg","itemLargeImage":"store/20180522154/assets/items/largeimages/AIN7NSW9K2.jpg","price":{"list_price":null,"value":{"integer":"510","decimal":"00"}},"url":"product/custom-clothing/dresses/starlight-starshine-dress-ain7nsw9k2","properties":{"Sys_Num_Images":"2"}},{"id":279569,"title":"Wrapped in Stars Dress","code":"AINBZ9TQB2","desc":"Custom made wrap dress with hand-applique star embellishments","currency_sign":"$","image":"store/20180522154/assets/items/images/AINBZ9TQB2.jpg","itemLargeImage":"store/20180522154/assets/items/largeimages/AINBZ9TQB2.jpg","price":{"list_price":null,"value":{"integer":"120","decimal":"00"}},"url":"product/custom-clothing/dresses/wrapped-in-stars-dress-ainbz9tqb2","properties":{"Sys_Num_Images":"3"}},{"id":279579,"title":"A Kiss of Red Skirt","code":"AINT6ORHF2","desc":"Custom made long skirt with pleats","currency_sign":"$","image":"store/20180522154/assets/items/images/AINT6ORHF2.jpg","itemLargeImage":"store/20180522154/assets/items/largeimages/AINT6ORHF2.jpg","price":{"list_price":null,"value":{"integer":"138","decimal":"00"}},"url":"product/custom-clothing/dresses/a-kiss-of-red-skirt-aint6orhf2","properties":{"Sys_Num_Images":"3"}},{"id":279588,"title":"Be a Diva Dress","code":"AINDJET3N0","desc":"Custom made grey dress with nude insert","currency_sign":"$","image":"store/20180522154/assets/items/images/AINDJET3N0.jpg","itemLargeImage":"store/20180522154/assets/items/largeimages/AINDJET3N0.jpg","price":{"list_price":null,"value":{"integer":"350","decimal":"40"}},"url":"product/custom-clothing/dresses/be-a-diva-dress-aindjet3n0","properties":{"Sys_Num_Images":"3"}},{"id":279580,"title":"Deal with It Midi Skirt","code":"AIN6G8YR42","desc":"Custom made midi skirt with green sequins","currency_sign":"$","image":"store/20180522154/assets/items/images/AIN6G8YR42.jpg","itemLargeImage":"store/20180522154/assets/items/largeimages/AIN6G8YR42.jpg","price":{"list_price":null,"value":{"integer":"144","decimal":"00"}},"url":"product/custom-clothing/skirts/deal-with-it-midi-skirt-ain6g8yr42","properties":{"Sys_Num_Images":"2"}},{"id":279575,"title":"Fall from the Sky Dress","code":"AINWKI5E63","desc":"Custom made cocktail dress with flared skirt","currency_sign":"$","image":"store/20180522154/assets/items/images/AINWKI5E63.jpg","itemLargeImage":"store/20180522154/assets/items/largeimages/AINWKI5E63.jpg","price":{"list_price":null,"value":{"integer":"390","decimal":"00"}},"url":"product/custom-clothing/dresses/fall-from-the-sky-dress-ainwki5e63","properties":{"Sys_Num_Images":"3"}},{"id":279576,"title":"Golden Brocade Shift Dress","code":"AINVFQ5IZ2","desc":"Custom made shift dress with sleeveless cut","currency_sign":"$","image":"store/20180522154/assets/items/images/AINVFQ5IZ2.jpg","itemLargeImage":"store/20180522154/assets/items/largeimages/AINVFQ5IZ2.jpg","price":{"list_price":null,"value":{"integer":"216","decimal":"00"}},"url":"product/custom-clothing/dresses/golden-brocade-shift-dress-ainvfq5iz2","properties":{"Sys_Num_Images":"2"}},{"id":281867,"title":"In the Night Dress","code":"AINLRW35A3","desc":"Custom made blue gown with mini-pleats","currency_sign":"$","image":"store/20180522154/assets/items/images/AINLRW35A3.jpg","itemLargeImage":"store/20180522154/assets/items/largeimages/AINLRW35A3.jpg","price":{"list_price":null,"value":{"integer":"222","decimal":"00"}},"url":"product/custom-clothing/dresses/in-the-night-dress-ainlrw35a3","properties":{"Sys_Num_Images":"3"}},{"id":279587,"title":"In the Shots Dress","code":"AINI3IW6W2","desc":"Custom made vintage gown with mini-pleats","currency_sign":"$","image":"store/20180522154/assets/items/images/AINI3IW6W2.jpg","itemLargeImage":"store/20180522154/assets/items/largeimages/AINI3IW6W2.jpg","price":{"list_price":null,"value":{"integer":"222","decimal":"00"}},"url":"product/custom-clothing/dresses/in-the-shots-dress-aini3iw6w2","properties":{"Sys_Num_Images":"2"}},{"id":279586,"title":"In the Stars Dress","code":"AINAUYM5A0","desc":"Custom made silver gown with mini-pleats","currency_sign":"$","image":"store/20180522154/assets/items/images/AINAUYM5A0.jpg","itemLargeImage":"store/20180522154/assets/items/largeimages/AINAUYM5A0.jpg","price":{"list_price":null,"value":{"integer":"222","decimal":"00"}},"url":"product/custom-clothing/dresses/in-the-stars-dress-ainauym5a0","properties":{"Sys_Num_Images":"2"}},{"id":279573,"title":"Open My Heart Dress","code":"AINT9OM2M0","desc":"Custom made velvet cocktail dress with hand sewn pearls","currency_sign":"$","image":"store/20180522154/assets/items/images/AINT9OM2M0.jpg","itemLargeImage":"store/20180522154/assets/items/largeimages/AINT9OM2M0.jpg","price":{"list_price":null,"value":{"integer":"252","decimal":"00"}},"url":"product/custom-clothing/dresses/open-my-heart-dress-aint9om2m0","properties":{"Sys_Num_Images":"3"}}],"otherPages":{"_2":[{"id":279577,"title":"Ring on Me Swing Dress","code":"AIN6U3YFS2","desc":"Custom made mini dress with high neck","currency_sign":"$","image":"store/20180522154/assets/items/images/AIN6U3YFS2.jpg","itemLargeImage":"store/20180522154/assets/items/largeimages/AIN6U3YFS2.jpg","price":{"list_price":null,"value":{"integer":"116","decimal":"40"}},"url":"product/custom-clothing/dresses/ring-on-me-swing-dress-ain6u3yfs2","properties":{"Sys_Num_Images":"2"}},{"id":279581,"title":"Under the Sea Skirt","code":"AINTIGF5X2","desc":"Custom made velvet skirt with mermaid silhouette","currency_sign":"$","image":"store/20180522154/assets/items/images/AINTIGF5X2.jpg","itemLargeImage":"store/20180522154/assets/items/largeimages/AINTIGF5X2.jpg","price":{"list_price":null,"value":{"integer":"141","decimal":"60"}},"url":"product/custom-clothing/dresses/under-the-sea-skirt-aintigf5x2","properties":{"Sys_Num_Images":"2"}},{"id":279559,"title":"We Meet at Destiny Dress","code":"AINW5KX7B2","desc":"Custom made velvet gown with fine tulle skirt","currency_sign":"$","image":"store/20180522154/assets/items/images/AINW5KX7B2.jpg","itemLargeImage":"store/20180522154/assets/items/largeimages/AINW5KX7B2.jpg","price":{"list_price":null,"value":{"integer":"780","decimal":"00"}},"url":"product/custom-clothing/special-occasion/we-meet-at-destiny-dress-ainw5kx7b2","properties":{"Sys_Num_Images":"2"}},{"id":279571,"title":"Wrapped in Love Dress","code":"AINGL9G490","desc":"Custom made wrap dress with hand-applique star embellishments","currency_sign":"$","image":"store/20180522154/assets/items/images/AINGL9G490.jpg","itemLargeImage":"store/20180522154/assets/items/largeimages/AINGL9G490.jpg","price":{"list_price":null,"value":{"integer":"120","decimal":"00"}},"url":"product/custom-clothing/dresses/wrapped-in-love-dress-aingl9g490","properties":{"Sys_Num_Images":"3"}}],"_3":null,"_4":null,"_5":null,"_6":null,"_7":null,"_8":null,"_9":null,"_10":null},"facets":[{"Other":null,"Price":[{"count":0,"removeText":"Price: 0.00 - 99.99","text":"0.00 - 99.99","value":"[0.00 TO 99.99]"},{"count":7,"removeText":"Price: 100.00 - 149.99","text":"100.00 - 149.99","value":"[100.00 TO 149.99]"},{"count":4,"removeText":"Price: 150.00 - 249.99","text":"150.00 - 249.99","value":"[150.00 TO 249.99]"},{"count":4,"removeText":"Price: 250.00 - 749.99","text":"250.00 - 749.99","value":"[250.00 TO 749.99]"},{"count":1,"removeText":"Price: 750.00 - 949.99","text":"750.00 - 949.99","value":"[750.00 TO 949.99]"},{"count":0,"removeText":"Price: 1000.00 - 1499.99","text":"1000.00 - 1499.99","value":"[1000.00 TO 1499.99]"}],"Reviews":null},{"Other":null,"Price":null,"Reviews":[{"count":0,"removeText":"Review: 1 Stars","text":1,"value":"[0.5 TO 1.5]"},{"count":0,"removeText":"Review: 2 Stars","text":2,"value":"[1.5 TO 2.5]"},{"count":0,"removeText":"Review: 3 Stars","text":3,"value":"[2.5 TO 3.5]"},{"count":0,"removeText":"Review: 4 Stars","text":4,"value":"[3.5 TO 4.5]"},{"count":1,"removeText":"Review: 5 Stars","text":5,"value":"[4.5 TO 5.5]"}]},{"Other":[{"name":"Body_Type_all_categories","title":"Body_Type_all_categories","facetValues":[{"count":15,"name":"Body_Type_all_categories","removeText":"Body_Type_all_categories: Apple","text":"Apple","value":"Apple"},{"count":15,"name":"Body_Type_all_categories","removeText":"Body_Type_all_categories: Athletic","text":"Athletic","value":"Athletic"},{"count":16,"name":"Body_Type_all_categories","removeText":"Body_Type_all_categories: Average","text":"Average","value":"Average"},{"count":13,"name":"Body_Type_all_categories","removeText":"Body_Type_all_categories: Busty","text":"Busty","value":"Busty"},{"count":16,"name":"Body_Type_all_categories","removeText":"Body_Type_all_categories: Hourglass","text":"Hourglass","value":"Hourglass"},{"count":16,"name":"Body_Type_all_categories","removeText":"Body_Type_all_categories: Lanky","text":"Lanky","value":"Lanky"},{"count":16,"name":"Body_Type_all_categories","removeText":"Body_Type_all_categories: Pear","text":"Pear","value":"Pear"},{"count":0,"name":"Body_Type_all_categories","removeText":"Body_Type_all_categories: Petite Hourglass","text":"Petite Hourglass","value":"Petite Hourglass"},{"count":14,"name":"Body_Type_all_categories","removeText":"Body_Type_all_categories: Petite hourglass","text":"Petite hourglass","value":"Petite hourglass"},{"count":1,"name":"Body_Type_all_categories","removeText":"Body_Type_all_categories: Pregnant","text":"Pregnant","value":"Pregnant"},{"count":16,"name":"Body_Type_all_categories","removeText":"Body_Type_all_categories: Square","text":"Square","value":"Square"},{"count":0,"name":"Body_Type_all_categories","removeText":"Body_Type_all_categories: Thin / Slender","text":"Thin / Slender","value":"Thin / Slender"},{"count":16,"name":"Body_Type_all_categories","removeText":"Body_Type_all_categories: Thin / slender","text":"Thin / slender","value":"Thin / slender"}]},{"name":"Fabric_all_categories","title":"Fabric_all_categories","facetValues":[{"count":0,"name":"Fabric_all_categories","removeText":"Fabric_all_categories: Acrylic","text":"Acrylic","value":"Acrylic"},{"count":2,"name":"Fabric_all_categories","removeText":"Fabric_all_categories: Brocade","text":"Brocade","value":"Brocade"},{"count":0,"name":"Fabric_all_categories","removeText":"Fabric_all_categories: Chiffon","text":"Chiffon","value":"Chiffon"},{"count":0,"name":"Fabric_all_categories","removeText":"Fabric_all_categories: Chintz","text":"Chintz","value":"Chintz"},{"count":0,"name":"Fabric_all_categories","removeText":"Fabric_all_categories: Corduroy","text":"Corduroy","value":"Corduroy"},{"count":0,"name":"Fabric_all_categories","removeText":"Fabric_all_categories: Cotton","text":"Cotton","value":"Cotton"},{"count":0,"name":"Fabric_all_categories","removeText":"Fabric_all_categories: Crepe","text":"Crepe","value":"Crepe"},{"count":0,"name":"Fabric_all_categories","removeText":"Fabric_all_categories: Denim","text":"Denim","value":"Denim"},{"count":0,"name":"Fabric_all_categories","removeText":"Fabric_all_categories: Elastane","text":"Elastane","value":"Elastane"},{"count":0,"name":"Fabric_all_categories","removeText":"Fabric_all_categories: Faux fur","text":"Faux fur","value":"Faux fur"},{"count":0,"name":"Fabric_all_categories","removeText":"Fabric_all_categories: Flax","text":"Flax","value":"Flax"},{"count":0,"name":"Fabric_all_categories","removeText":"Fabric_all_categories: Fleece","text":"Fleece","value":"Fleece"},{"count":0,"name":"Fabric_all_categories","removeText":"Fabric_all_categories: Georgette","text":"Georgette","value":"Georgette"},{"count":0,"name":"Fabric_all_categories","removeText":"Fabric_all_categories: Hemp","text":"Hemp","value":"Hemp"},{"count":0,"name":"Fabric_all_categories","removeText":"Fabric_all_categories: Jersey","text":"Jersey","value":"Jersey"},{"count":1,"name":"Fabric_all_categories","removeText":"Fabric_all_categories: Lace","text":"Lace","value":"Lace"},{"count":0,"name":"Fabric_all_categories","removeText":"Fabric_all_categories: Leather","text":"Leather","value":"Leather"},{"count":0,"name":"Fabric_all_categories","removeText":"Fabric_all_categories: Linen","text":"Linen","value":"Linen"},{"count":0,"name":"Fabric_all_categories","removeText":"Fabric_all_categories: Lycra","text":"Lycra","value":"Lycra"},{"count":4,"name":"Fabric_all_categories","removeText":"Fabric_all_categories: Metallic","text":"Metallic","value":"Metallic"},{"count":0,"name":"Fabric_all_categories","removeText":"Fabric_all_categories: Neoprene","text":"Neoprene","value":"Neoprene"},{"count":0,"name":"Fabric_all_categories","removeText":"Fabric_all_categories: Nylon","text":"Nylon","value":"Nylon"},{"count":0,"name":"Fabric_all_categories","removeText":"Fabric_all_categories: Organza","text":"Organza","value":"Organza"},{"count":0,"name":"Fabric_all_categories","removeText":"Fabric_all_categories: Plastic","text":"Plastic","value":"Plastic"},{"count":1,"name":"Fabric_all_categories","removeText":"Fabric_all_categories: Polyester","text":"Polyester","value":"Polyester"},{"count":0,"name":"Fabric_all_categories","removeText":"Fabric_all_categories: Rayon","text":"Rayon","value":"Rayon"},{"count":0,"name":"Fabric_all_categories","removeText":"Fabric_all_categories: Satin","text":"Satin","value":"Satin"},{"count":0,"name":"Fabric_all_categories","removeText":"Fabric_all_categories: Seersucker","text":"Seersucker","value":"Seersucker"},{"count":0,"name":"Fabric_all_categories","removeText":"Fabric_all_categories: Sequins","text":"Sequins","value":"Sequins"},{"count":2,"name":"Fabric_all_categories","removeText":"Fabric_all_categories: Silk","text":"Silk","value":"Silk"},{"count":0,"name":"Fabric_all_categories","removeText":"Fabric_all_categories: Spandex","text":"Spandex","value":"Spandex"},{"count":2,"name":"Fabric_all_categories","removeText":"Fabric_all_categories: Taffeta","text":"Taffeta","value":"Taffeta"},{"count":2,"name":"Fabric_all_categories","removeText":"Fabric_all_categories: Tulle","text":"Tulle","value":"Tulle"},{"count":0,"name":"Fabric_all_categories","removeText":"Fabric_all_categories: Tweed","text":"Tweed","value":"Tweed"},{"count":0,"name":"Fabric_all_categories","removeText":"Fabric_all_categories: Vegan leather","text":"Vegan leather","value":"Vegan leather"},{"count":5,"name":"Fabric_all_categories","removeText":"Fabric_all_categories: Velvet","text":"Velvet","value":"Velvet"},{"count":0,"name":"Fabric_all_categories","removeText":"Fabric_all_categories: Viscose","text":"Viscose","value":"Viscose"},{"count":0,"name":"Fabric_all_categories","removeText":"Fabric_all_categories: Wool","text":"Wool","value":"Wool"},{"count":0,"name":"Fabric_all_categories","removeText":"Fabric_all_categories: bamboo","text":"bamboo","value":"bamboo"},{"count":0,"name":"Fabric_all_categories","removeText":"Fabric_all_categories: elastane","text":"elastane","value":"elastane"},{"count":0,"name":"Fabric_all_categories","removeText":"Fabric_all_categories: polyester","text":"polyester","value":"polyester"},{"count":0,"name":"Fabric_all_categories","removeText":"Fabric_all_categories: viscose","text":"viscose","value":"viscose"}]},{"name":"Color_all_categories","title":"Color_all_categories","facetValues":[{"count":0,"name":"Color_all_categories","removeText":"Color_all_categories: Animal print","text":"Animal print","value":"Animal print"},{"count":7,"name":"Color_all_categories","removeText":"Color_all_categories: Black","text":"Black","value":"Black"},{"count":0,"name":"Color_all_categories","removeText":"Color_all_categories: Black multi","text":"Black multi","value":"Black multi"},{"count":2,"name":"Color_all_categories","removeText":"Color_all_categories: Blue","text":"Blue","value":"Blue"},{"count":0,"name":"Color_all_categories","removeText":"Color_all_categories: Bronze","text":"Bronze","value":"Bronze"},{"count":0,"name":"Color_all_categories","removeText":"Color_all_categories: Brown","text":"Brown","value":"Brown"},{"count":0,"name":"Color_all_categories","removeText":"Color_all_categories: Burgundy","text":"Burgundy","value":"Burgundy"},{"count":0,"name":"Color_all_categories","removeText":"Color_all_categories: Camouflage","text":"Camouflage","value":"Camouflage"},{"count":0,"name":"Color_all_categories","removeText":"Color_all_categories: Clear","text":"Clear","value":"Clear"},{"count":0,"name":"Color_all_categories","removeText":"Color_all_categories: Coral","text":"Coral","value":"Coral"},{"count":0,"name":"Color_all_categories","removeText":"Color_all_categories: Fuchsia","text":"Fuchsia","value":"Fuchsia"},{"count":3,"name":"Color_all_categories","removeText":"Color_all_categories: Gold","text":"Gold","value":"Gold"},{"count":0,"name":"Color_all_categories","removeText":"Color_all_categories: Gray","text":"Gray","value":"Gray"},{"count":1,"name":"Color_all_categories","removeText":"Color_all_categories: Green","text":"Green","value":"Green"},{"count":0,"name":"Color_all_categories","removeText":"Color_all_categories: Ivory / cream","text":"Ivory / cream","value":"Ivory / cream"},{"count":0,"name":"Color_all_categories","removeText":"Color_all_categories: Khaki","text":"Khaki","value":"Khaki"},{"count":0,"name":"Color_all_categories","removeText":"Color_all_categories: Magenta","text":"Magenta","value":"Magenta"},{"count":0,"name":"Color_all_categories","removeText":"Color_all_categories: Mahogany","text":"Mahogany","value":"Mahogany"},{"count":0,"name":"Color_all_categories","removeText":"Color_all_categories: Metallic","text":"Metallic","value":"Metallic"},{"count":0,"name":"Color_all_categories","removeText":"Color_all_categories: Mint","text":"Mint","value":"Mint"},{"count":0,"name":"Color_all_categories","removeText":"Color_all_categories: Multi","text":"Multi","value":"Multi"},{"count":0,"name":"Color_all_categories","removeText":"Color_all_categories: Navy","text":"Navy","value":"Navy"},{"count":1,"name":"Color_all_categories","removeText":"Color_all_categories: Neutral","text":"Neutral","value":"Neutral"},{"count":0,"name":"Color_all_categories","removeText":"Color_all_categories: Olive green","text":"Olive green","value":"Olive green"},{"count":0,"name":"Color_all_categories","removeText":"Color_all_categories: Orange","text":"Orange","value":"Orange"},{"count":0,"name":"Color_all_categories","removeText":"Color_all_categories: Peach","text":"Peach","value":"Peach"},{"count":0,"name":"Color_all_categories","removeText":"Color_all_categories: Pewter","text":"Pewter","value":"Pewter"},{"count":1,"name":"Color_all_categories","removeText":"Color_all_categories: Pink","text":"Pink","value":"Pink"},{"count":0,"name":"Color_all_categories","removeText":"Color_all_categories: Purple","text":"Purple","value":"Purple"},{"count":1,"name":"Color_all_categories","removeText":"Color_all_categories: Red","text":"Red","value":"Red"},{"count":4,"name":"Color_all_categories","removeText":"Color_all_categories: Silver","text":"Silver","value":"Silver"},{"count":0,"name":"Color_all_categories","removeText":"Color_all_categories: Tan / beige","text":"Tan / beige","value":"Tan / beige"},{"count":0,"name":"Color_all_categories","removeText":"Color_all_categories: Taupe","text":"Taupe","value":"Taupe"},{"count":0,"name":"Color_all_categories","removeText":"Color_all_categories: Teal","text":"Teal","value":"Teal"},{"count":0,"name":"Color_all_categories","removeText":"Color_all_categories: Turquoise","text":"Turquoise","value":"Turquoise"},{"count":0,"name":"Color_all_categories","removeText":"Color_all_categories: White","text":"White","value":"White"},{"count":0,"name":"Color_all_categories","removeText":"Color_all_categories: Yellow","text":"Yellow","value":"Yellow"},{"count":0,"name":"Color_all_categories","removeText":"Color_all_categories: gold","text":"gold","value":"gold"},{"count":0,"name":"Color_all_categories","removeText":"Color_all_categories: navy","text":"navy","value":"navy"}]},{"name":"Brand","title":"Brand","facetValues":[{"count":0,"name":"Brand","removeText":"Brand: Aiste Anaite","text":"Aiste Anaite","value":"Aiste Anaite"},{"count":0,"name":"Brand","removeText":"Brand: Anastasia Chatzka","text":"Anastasia Chatzka","value":"Anastasia Chatzka"},{"count":0,"name":"Brand","removeText":"Brand: Ashley Nell Tipton","text":"Ashley Nell Tipton","value":"Ashley Nell Tipton"},{"count":0,"name":"Brand","removeText":"Brand: Balodana","text":"Balodana","value":"Balodana"},{"count":0,"name":"Brand","removeText":"Brand: Delia von Hahn","text":"Delia von Hahn","value":"Delia von Hahn"},{"count":0,"name":"Brand","removeText":"Brand: EUG Fashion","text":"EUG Fashion","value":"EUG Fashion"},{"count":0,"name":"Brand","removeText":"Brand: J Brooks Boutique","text":"J Brooks Boutique","value":"J Brooks Boutique"},{"count":0,"name":"Brand","removeText":"Brand: Lino Piani","text":"Lino Piani","value":"Lino Piani"},{"count":0,"name":"Brand","removeText":"Brand: Samshek","text":"Samshek","value":"Samshek"},{"count":0,"name":"Brand","removeText":"Brand: Shantima","text":"Shantima","value":"Shantima"},{"count":0,"name":"Brand","removeText":"Brand: Sumissura","text":"Sumissura","value":"Sumissura"},{"count":0,"name":"Brand","removeText":"Brand: Tammi Anne Barker","text":"Tammi Anne Barker","value":"Tammi Anne Barker"},{"count":0,"name":"Brand","removeText":"Brand: Tavrovska","text":"Tavrovska","value":"Tavrovska"},{"count":0,"name":"Brand","removeText":"Brand: Teyxo","text":"Teyxo","value":"Teyxo"},{"count":16,"name":"Brand","removeText":"Brand: ZaZa Boutique","text":"ZaZa Boutique","value":"ZaZa Boutique"}]},{"name":"Customizable_all_categories","title":"Customizable_all_categories","facetValues":[{"count":16,"name":"Customizable_all_categories","removeText":"Customizable_all_categories: No","text":"No","value":"No"},{"count":0,"name":"Customizable_all_categories","removeText":"Customizable_all_categories: Yes","text":"Yes","value":"Yes"}]}],"Price":null,"Reviews":null}]}]}},"pageContext":{"pageCount":2,"currentPage":1,"url":"custom-clothing/special-occasion"}}}