{"componentChunkName":"component---src-templates-category-js","path":"/preview/custom-clothing/skirts","result":{"data":{"allAvettiCategory":{"nodes":[{"cid":"65874","url":"custom-clothing/skirts","name":"Skirts","longdesc":"&lt;p&gt;&lt;span data-sheets-value=&quot;{&amp;quot;1&amp;quot;:2,&amp;quot;2&amp;quot;:&amp;quot;Need a long skirt custom made? A short one? A fancy one? Dig into our wide variety of custom made women&#39;s skirts. We&amp;rsquo;ve got it all in our tailored skirt collection from some of the coolest designers around. Everything is made to measure!&amp;quot;}&quot; data-sheets-userformat=&quot;{&amp;quot;2&amp;quot;:8403905,&amp;quot;3&amp;quot;:[null,0],&amp;quot;9&amp;quot;:0,&amp;quot;10&amp;quot;:0,&amp;quot;11&amp;quot;:4,&amp;quot;12&amp;quot;:0,&amp;quot;14&amp;quot;:[null,2,0],&amp;quot;15&amp;quot;:&amp;quot;Calibri, sans-serif&amp;quot;,&amp;quot;16&amp;quot;:9,&amp;quot;26&amp;quot;:400}&quot;&gt;Need a long skirt custom made? A short one? A fancy one? Dig into our wide variety of custom made women&#39;s skirts. We&amp;rsquo;ve got it all in our tailored skirt collection from some of the coolest designers around. Everything is made to measure!&lt;/span&gt;&lt;/p&gt;","meta":{"metadescription":"Shop our wide variety of custom made womens skirts from talented designers and dressmakers. Our custom tailored women&#39;s skirt collection is extensive and guaranteed to fit.","metakeywords":"Custom Made Women&#39;s Skirts Custom Tailored Skirts"},"image":"/20180730431/assets/category/images/New_Banner_Image_Skirts.jpg","itemsCount":"19","numberOfPages":"2","description":"Custom Made Skirts","itemsFirstPage":[{"id":279578,"title":"A Kiss of Black Skirt","code":"AINYQSRTQ0","desc":"Custom made long skirt with pleats","currency_sign":"$","image":"store/20180522154/assets/items/images/AINYQSRTQ0.jpg","itemLargeImage":"store/20180522154/assets/items/largeimages/AINYQSRTQ0.jpg","price":{"list_price":null,"value":{"integer":"111","decimal":"60"}},"url":"product/custom-clothing/dresses/a-kiss-of-black-skirt-ainyqsrtq0","properties":{"Sys_Num_Images":"2"}},{"id":279579,"title":"A Kiss of Red Skirt","code":"AINT6ORHF2","desc":"Custom made long skirt with pleats","currency_sign":"$","image":"store/20180522154/assets/items/images/AINT6ORHF2.jpg","itemLargeImage":"store/20180522154/assets/items/largeimages/AINT6ORHF2.jpg","price":{"list_price":null,"value":{"integer":"138","decimal":"00"}},"url":"product/custom-clothing/dresses/a-kiss-of-red-skirt-aint6orhf2","properties":{"Sys_Num_Images":"3"}},{"id":282150,"title":"Aira A-line Skirt","code":"AINZWFPK62","desc":"Long linen A-line skirt with two side pockets","currency_sign":"$","image":"store/20180522154/assets/items/images/AINZWFPK62.jpg","itemLargeImage":"store/20180522154/assets/items/largeimages/AINZWFPK62.jpg","price":{"list_price":null,"value":{"integer":"147","decimal":"00"}},"url":"product/custom-clothing/skirts/aira-a-line-skirt-ainzwfpk62","properties":{"Sys_Num_Images":"5"}},{"id":279688,"title":"Army Green Cotton Skirt","code":"AINMAEA4C2","desc":"Asymmetrical maxi skirt with long straps and sweater sleeve detailing","currency_sign":"$","image":"store/20180522154/assets/items/images/AINMAEA4C2.jpg","itemLargeImage":"store/20180522154/assets/items/largeimages/AINMAEA4C2.jpg","price":{"list_price":null,"value":{"integer":"85","decimal":"00"}},"url":"product/custom-clothing/skirts/army-green-cotton-skirt-ainmaea4c2","properties":{"Sys_Num_Images":"10"}},{"id":280707,"title":"Beige High-Waisted Skirt","code":"AINPO9FAZ2","desc":"Fully customizable, mid-thigh length wool skirt","currency_sign":"$","image":"store/20180522154/assets/items/images/AINPO9FAZ2.jpg","itemLargeImage":"store/20180522154/assets/items/largeimages/AINPO9FAZ2.jpg","price":{"list_price":null,"value":{"integer":"89","decimal":"00"}},"url":"product/custom-clothing/skirts/beige-high-waisted-skirt-ainpo9faz2","properties":{"Sys_Num_Images":"2"}},{"id":279580,"title":"Deal with It Midi Skirt","code":"AIN6G8YR42","desc":"Custom made midi skirt with green sequins","currency_sign":"$","image":"store/20180522154/assets/items/images/AIN6G8YR42.jpg","itemLargeImage":"store/20180522154/assets/items/largeimages/AIN6G8YR42.jpg","price":{"list_price":null,"value":{"integer":"144","decimal":"00"}},"url":"product/custom-clothing/skirts/deal-with-it-midi-skirt-ain6g8yr42","properties":{"Sys_Num_Images":"2"}},{"id":282347,"title":"Distressed Fairy Skirt","code":"AINGWTXQH0","desc":"Custom made fun linen skirt with cascading layers","currency_sign":"$","image":"store/20180522154/assets/items/images/AINGWTXQH0.jpg","itemLargeImage":"store/20180522154/assets/items/largeimages/AINGWTXQH0.jpg","price":{"list_price":null,"value":{"integer":"172","decimal":"79"}},"url":"product/custom-clothing/skirts/distressed-fairy-skirt-aingwtxqh0","properties":{"Sys_Num_Images":"5"}},{"id":279561,"title":"Fun & Fancy Tulle Skirt","code":"AINCRACBU0","desc":"Custom made midi skirt with satin lining and layers of tulle","currency_sign":"$","image":"store/20180522154/assets/items/images/AINCRACBU0.jpg","itemLargeImage":"store/20180522154/assets/items/largeimages/AINCRACBU0.jpg","price":{"list_price":null,"value":{"integer":"66","decimal":"00"}},"url":"product/custom-clothing/skirts/fun-fancy-tulle-skirt-aincracbu0","properties":{"Sys_Num_Images":"3"}},{"id":282411,"title":"GYPSY Linen Skirt","code":"AINWXHBTB3","desc":"Custom made maxi skirt with elastic waist","currency_sign":"$","image":"store/20180522154/assets/items/images/AINWXHBTB3.jpg","itemLargeImage":"store/20180522154/assets/items/largeimages/AINWXHBTB3.jpg","price":{"list_price":null,"value":{"integer":"175","decimal":"00"}},"url":"product/custom-clothing/skirts/gypsy-linen-skirt-ainwxhbtb3","properties":{"Sys_Num_Images":"6"}},{"id":282149,"title":"Indi Linen Skirt","code":"AINVGSJ6F2","desc":"Long linen A-line skirt with two side pockets","currency_sign":"$","image":"store/20180522154/assets/items/images/AINVGSJ6F2.jpg","itemLargeImage":"store/20180522154/assets/items/largeimages/AINVGSJ6F2.jpg","price":{"list_price":null,"value":{"integer":"147","decimal":"00"}},"url":"product/custom-clothing/skirts/indi-linen-skirt-ainvgsj6f2","properties":{"Sys_Num_Images":"7"}},{"id":282447,"title":"Navy Floral Pencil Skirt","code":"AINGF252D2","desc":"Denim-look cotton chintz skirt, wear separate or with suit blazer","currency_sign":"$","image":"store/20180522154/assets/items/images/AINGF252D2.jpg","itemLargeImage":"store/20180522154/assets/items/largeimages/AINGF252D2.jpg","price":{"list_price":null,"value":{"integer":"200","decimal":"00"}},"url":"product/custom-clothing/skirts/navy-floral-pencil-skirt-aingf252d2","properties":{"Sys_Num_Images":"3"}},{"id":282254,"title":"Other-Worldly Sequin Skirt","code":"AINW9AK1Q0","desc":"Custom made black and gold skirt with sequins","currency_sign":"$","image":"store/20180522154/assets/items/images/AINW9AK1Q0.jpg","itemLargeImage":"store/20180522154/assets/items/largeimages/AINW9AK1Q0.jpg","price":{"list_price":null,"value":{"integer":"98","decimal":"00"}},"url":"product/custom-clothing/skirts/other-worldly-sequin-skirt-ainw9ak1q0","properties":{"Sys_Num_Images":"3"}}],"otherPages":{"_2":[{"id":282977,"title":"Pink Lace Confection Ensemble","code":"AINVGJX7Y0","desc":"2-piece custom made lace top and quilted skirt","currency_sign":"$","image":"store/20180522154/assets/items/images/AINVGJX7Y0.jpg","itemLargeImage":"store/20180522154/assets/items/largeimages/AINVGJX7Y0.jpg","price":{"list_price":null,"value":{"integer":"695","decimal":"00"}},"url":"product/custom-clothing/skirts/pink-lace-confection-ensemble-ainvgjx7y0","properties":{"Sys_Num_Images":"6"}},{"id":279582,"title":"Say I'm Sweet Skirt","code":"AINWOA2Y70","desc":"Custom made midi skirt with pleats","currency_sign":"$","image":"store/20180522154/assets/items/images/AINWOA2Y70.jpg","itemLargeImage":"store/20180522154/assets/items/largeimages/AINWOA2Y70.jpg","price":{"list_price":null,"value":{"integer":"84","decimal":"00"}},"url":"product/custom-clothing/skirts/say-im-sweet-skirt-ainwoa2y70","properties":{"Sys_Num_Images":"3"}},{"id":279609,"title":"The Kat Skirt","code":"AINM9WZQJ0","desc":"Custom made tea length skirt with breezy pleats","currency_sign":"$","image":"store/20180522154/assets/items/images/AINM9WZQJ0.jpg","itemLargeImage":"store/20180522154/assets/items/largeimages/AINM9WZQJ0.jpg","price":{"list_price":null,"value":{"integer":"164","decimal":"00"}},"url":"product/custom-clothing/skirts/the-kat-skirt-ainm9wzqj0","properties":{"Sys_Num_Images":"2"}},{"id":282400,"title":"Touch of Breeze Maxi Skirt","code":"AINRTXXQH0","desc":"Custom made long linen skirt with simple design","currency_sign":"$","image":"store/20180522154/assets/items/images/AINRTXXQH0.jpg","itemLargeImage":"store/20180522154/assets/items/largeimages/AINRTXXQH0.jpg","price":{"list_price":null,"value":{"integer":"172","decimal":"79"}},"url":"product/custom-clothing/skirts/touch-of-breeze-maxi-skirt-ainrtxxqh0","properties":{"Sys_Num_Images":"2"}},{"id":281194,"title":"Tweed Pencil Skirt","code":"AINZDE4V63","desc":"Fully customizable, high-waisted, knee-length skirt- perfect for winter wear","currency_sign":"$","image":"store/20180522154/assets/items/images/AINZDE4V63.jpg","itemLargeImage":"store/20180522154/assets/items/largeimages/AINZDE4V63.jpg","price":{"list_price":null,"value":{"integer":"89","decimal":"00"}},"url":"product/custom-clothing/skirts/tweed-pencil-skirt-ainzde4v63","properties":{"Sys_Num_Images":"2"}},{"id":279581,"title":"Under the Sea Skirt","code":"AINTIGF5X2","desc":"Custom made velvet skirt with mermaid silhouette","currency_sign":"$","image":"store/20180522154/assets/items/images/AINTIGF5X2.jpg","itemLargeImage":"store/20180522154/assets/items/largeimages/AINTIGF5X2.jpg","price":{"list_price":null,"value":{"integer":"141","decimal":"60"}},"url":"product/custom-clothing/dresses/under-the-sea-skirt-aintigf5x2","properties":{"Sys_Num_Images":"2"}},{"id":282399,"title":"Up and at 'Em Midi Skirt","code":"AINM4SHCT0","desc":"Custom made midi skirt with hand-crafted texturized fabric","currency_sign":"$","image":"store/20180522154/assets/items/images/AINM4SHCT0.jpg","itemLargeImage":"store/20180522154/assets/items/largeimages/AINM4SHCT0.jpg","price":{"list_price":null,"value":{"integer":"172","decimal":"79"}},"url":"product/custom-clothing/skirts/up-and-at-em-midi-skirt-ainm4shct0","properties":{"Sys_Num_Images":"1"}}],"_3":null,"_4":null,"_5":null,"_6":null,"_7":null,"_8":null,"_9":null,"_10":null},"facets":[{"Other":null,"Price":[{"count":6,"removeText":"Price: 0.00 - 99.99","text":"0.00 - 99.99","value":"[0.00 TO 99.99]"},{"count":6,"removeText":"Price: 100.00 - 149.99","text":"100.00 - 149.99","value":"[100.00 TO 149.99]"},{"count":5,"removeText":"Price: 150.00 - 199.99","text":"150.00 - 199.99","value":"[150.00 TO 199.99]"},{"count":2,"removeText":"Price: 200.00 - 949.99","text":"200.00 - 949.99","value":"[200.00 TO 949.99]"},{"count":0,"removeText":"Price: 1000.00 - 1499.99","text":"1000.00 - 1499.99","value":"[1000.00 TO 1499.99]"}],"Reviews":null},{"Other":null,"Price":null,"Reviews":[{"count":0,"removeText":"Review: 1 Stars","text":1,"value":"[0.5 TO 1.5]"},{"count":0,"removeText":"Review: 2 Stars","text":2,"value":"[1.5 TO 2.5]"},{"count":0,"removeText":"Review: 3 Stars","text":3,"value":"[2.5 TO 3.5]"},{"count":0,"removeText":"Review: 4 Stars","text":4,"value":"[3.5 TO 4.5]"},{"count":0,"removeText":"Review: 5 Stars","text":5,"value":"[4.5 TO 5.5]"}]},{"Other":[{"name":"Brand","title":"Brand","facetValues":[{"count":3,"name":"Brand","removeText":"Brand: Aiste Anaite","text":"Aiste Anaite","value":"Aiste Anaite"},{"count":0,"name":"Brand","removeText":"Brand: Anastasia Chatzka","text":"Anastasia Chatzka","value":"Anastasia Chatzka"},{"count":1,"name":"Brand","removeText":"Brand: Ashley Nell Tipton","text":"Ashley Nell Tipton","value":"Ashley Nell Tipton"},{"count":0,"name":"Brand","removeText":"Brand: Balodana","text":"Balodana","value":"Balodana"},{"count":0,"name":"Brand","removeText":"Brand: Delia von Hahn","text":"Delia von Hahn","value":"Delia von Hahn"},{"count":0,"name":"Brand","removeText":"Brand: EUG Fashion","text":"EUG Fashion","value":"EUG Fashion"},{"count":0,"name":"Brand","removeText":"Brand: J Brooks Boutique","text":"J Brooks Boutique","value":"J Brooks Boutique"},{"count":0,"name":"Brand","removeText":"Brand: Lino Piani","text":"Lino Piani","value":"Lino Piani"},{"count":1,"name":"Brand","removeText":"Brand: Samshek","text":"Samshek","value":"Samshek"},{"count":3,"name":"Brand","removeText":"Brand: Shantima","text":"Shantima","value":"Shantima"},{"count":2,"name":"Brand","removeText":"Brand: Sumissura","text":"Sumissura","value":"Sumissura"},{"count":1,"name":"Brand","removeText":"Brand: Tammi Anne Barker","text":"Tammi Anne Barker","value":"Tammi Anne Barker"},{"count":0,"name":"Brand","removeText":"Brand: Tavrovska","text":"Tavrovska","value":"Tavrovska"},{"count":1,"name":"Brand","removeText":"Brand: Teyxo","text":"Teyxo","value":"Teyxo"},{"count":7,"name":"Brand","removeText":"Brand: ZaZa Boutique","text":"ZaZa Boutique","value":"ZaZa Boutique"}]},{"name":"Style_Skirts","title":"Style_Skirts","facetValues":[{"count":6,"name":"Style_Skirts","removeText":"Style_Skirts: A-line","text":"A-line","value":"A-line"},{"count":2,"name":"Style_Skirts","removeText":"Style_Skirts: Asymmetrical","text":"Asymmetrical","value":"Asymmetrical"},{"count":8,"name":"Style_Skirts","removeText":"Style_Skirts: Fancy","text":"Fancy","value":"Fancy"},{"count":9,"name":"Style_Skirts","removeText":"Style_Skirts: Flared","text":"Flared","value":"Flared"},{"count":4,"name":"Style_Skirts","removeText":"Style_Skirts: Lagenlook","text":"Lagenlook","value":"Lagenlook"},{"count":8,"name":"Style_Skirts","removeText":"Style_Skirts: Maxi","text":"Maxi","value":"Maxi"},{"count":7,"name":"Style_Skirts","removeText":"Style_Skirts: Midi","text":"Midi","value":"Midi"},{"count":1,"name":"Style_Skirts","removeText":"Style_Skirts: Mini / short","text":"Mini / short","value":"Mini / short"},{"count":2,"name":"Style_Skirts","removeText":"Style_Skirts: Pencil","text":"Pencil","value":"Pencil"},{"count":0,"name":"Style_Skirts","removeText":"Style_Skirts: Pleated","text":"Pleated","value":"Pleated"}]},{"name":"Body_Type_all_categories","title":"Body_Type_all_categories","facetValues":[{"count":16,"name":"Body_Type_all_categories","removeText":"Body_Type_all_categories: Apple","text":"Apple","value":"Apple"},{"count":18,"name":"Body_Type_all_categories","removeText":"Body_Type_all_categories: Athletic","text":"Athletic","value":"Athletic"},{"count":18,"name":"Body_Type_all_categories","removeText":"Body_Type_all_categories: Average","text":"Average","value":"Average"},{"count":18,"name":"Body_Type_all_categories","removeText":"Body_Type_all_categories: Busty","text":"Busty","value":"Busty"},{"count":18,"name":"Body_Type_all_categories","removeText":"Body_Type_all_categories: Hourglass","text":"Hourglass","value":"Hourglass"},{"count":18,"name":"Body_Type_all_categories","removeText":"Body_Type_all_categories: Lanky","text":"Lanky","value":"Lanky"},{"count":19,"name":"Body_Type_all_categories","removeText":"Body_Type_all_categories: Pear","text":"Pear","value":"Pear"},{"count":0,"name":"Body_Type_all_categories","removeText":"Body_Type_all_categories: Petite Hourglass","text":"Petite Hourglass","value":"Petite Hourglass"},{"count":13,"name":"Body_Type_all_categories","removeText":"Body_Type_all_categories: Petite hourglass","text":"Petite hourglass","value":"Petite hourglass"},{"count":2,"name":"Body_Type_all_categories","removeText":"Body_Type_all_categories: Pregnant","text":"Pregnant","value":"Pregnant"},{"count":18,"name":"Body_Type_all_categories","removeText":"Body_Type_all_categories: Square","text":"Square","value":"Square"},{"count":0,"name":"Body_Type_all_categories","removeText":"Body_Type_all_categories: Thin / Slender","text":"Thin / Slender","value":"Thin / Slender"},{"count":17,"name":"Body_Type_all_categories","removeText":"Body_Type_all_categories: Thin / slender","text":"Thin / slender","value":"Thin / slender"}]},{"name":"Fabric_all_categories","title":"Fabric_all_categories","facetValues":[{"count":0,"name":"Fabric_all_categories","removeText":"Fabric_all_categories: Acrylic","text":"Acrylic","value":"Acrylic"},{"count":0,"name":"Fabric_all_categories","removeText":"Fabric_all_categories: Brocade","text":"Brocade","value":"Brocade"},{"count":0,"name":"Fabric_all_categories","removeText":"Fabric_all_categories: Chiffon","text":"Chiffon","value":"Chiffon"},{"count":1,"name":"Fabric_all_categories","removeText":"Fabric_all_categories: Chintz","text":"Chintz","value":"Chintz"},{"count":0,"name":"Fabric_all_categories","removeText":"Fabric_all_categories: Corduroy","text":"Corduroy","value":"Corduroy"},{"count":2,"name":"Fabric_all_categories","removeText":"Fabric_all_categories: Cotton","text":"Cotton","value":"Cotton"},{"count":0,"name":"Fabric_all_categories","removeText":"Fabric_all_categories: Crepe","text":"Crepe","value":"Crepe"},{"count":0,"name":"Fabric_all_categories","removeText":"Fabric_all_categories: Denim","text":"Denim","value":"Denim"},{"count":0,"name":"Fabric_all_categories","removeText":"Fabric_all_categories: Elastane","text":"Elastane","value":"Elastane"},{"count":0,"name":"Fabric_all_categories","removeText":"Fabric_all_categories: Faux fur","text":"Faux fur","value":"Faux fur"},{"count":1,"name":"Fabric_all_categories","removeText":"Fabric_all_categories: Flax","text":"Flax","value":"Flax"},{"count":0,"name":"Fabric_all_categories","removeText":"Fabric_all_categories: Fleece","text":"Fleece","value":"Fleece"},{"count":0,"name":"Fabric_all_categories","removeText":"Fabric_all_categories: Georgette","text":"Georgette","value":"Georgette"},{"count":0,"name":"Fabric_all_categories","removeText":"Fabric_all_categories: Hemp","text":"Hemp","value":"Hemp"},{"count":0,"name":"Fabric_all_categories","removeText":"Fabric_all_categories: Jersey","text":"Jersey","value":"Jersey"},{"count":0,"name":"Fabric_all_categories","removeText":"Fabric_all_categories: Lace","text":"Lace","value":"Lace"},{"count":0,"name":"Fabric_all_categories","removeText":"Fabric_all_categories: Leather","text":"Leather","value":"Leather"},{"count":6,"name":"Fabric_all_categories","removeText":"Fabric_all_categories: Linen","text":"Linen","value":"Linen"},{"count":0,"name":"Fabric_all_categories","removeText":"Fabric_all_categories: Lycra","text":"Lycra","value":"Lycra"},{"count":0,"name":"Fabric_all_categories","removeText":"Fabric_all_categories: Metallic","text":"Metallic","value":"Metallic"},{"count":0,"name":"Fabric_all_categories","removeText":"Fabric_all_categories: Neoprene","text":"Neoprene","value":"Neoprene"},{"count":0,"name":"Fabric_all_categories","removeText":"Fabric_all_categories: Nylon","text":"Nylon","value":"Nylon"},{"count":0,"name":"Fabric_all_categories","removeText":"Fabric_all_categories: Organza","text":"Organza","value":"Organza"},{"count":0,"name":"Fabric_all_categories","removeText":"Fabric_all_categories: Plastic","text":"Plastic","value":"Plastic"},{"count":4,"name":"Fabric_all_categories","removeText":"Fabric_all_categories: Polyester","text":"Polyester","value":"Polyester"},{"count":0,"name":"Fabric_all_categories","removeText":"Fabric_all_categories: Rayon","text":"Rayon","value":"Rayon"},{"count":0,"name":"Fabric_all_categories","removeText":"Fabric_all_categories: Satin","text":"Satin","value":"Satin"},{"count":0,"name":"Fabric_all_categories","removeText":"Fabric_all_categories: Seersucker","text":"Seersucker","value":"Seersucker"},{"count":0,"name":"Fabric_all_categories","removeText":"Fabric_all_categories: Sequins","text":"Sequins","value":"Sequins"},{"count":0,"name":"Fabric_all_categories","removeText":"Fabric_all_categories: Silk","text":"Silk","value":"Silk"},{"count":0,"name":"Fabric_all_categories","removeText":"Fabric_all_categories: Spandex","text":"Spandex","value":"Spandex"},{"count":3,"name":"Fabric_all_categories","removeText":"Fabric_all_categories: Taffeta","text":"Taffeta","value":"Taffeta"},{"count":1,"name":"Fabric_all_categories","removeText":"Fabric_all_categories: Tulle","text":"Tulle","value":"Tulle"},{"count":1,"name":"Fabric_all_categories","removeText":"Fabric_all_categories: Tweed","text":"Tweed","value":"Tweed"},{"count":0,"name":"Fabric_all_categories","removeText":"Fabric_all_categories: Vegan leather","text":"Vegan leather","value":"Vegan leather"},{"count":1,"name":"Fabric_all_categories","removeText":"Fabric_all_categories: Velvet","text":"Velvet","value":"Velvet"},{"count":0,"name":"Fabric_all_categories","removeText":"Fabric_all_categories: Viscose","text":"Viscose","value":"Viscose"},{"count":2,"name":"Fabric_all_categories","removeText":"Fabric_all_categories: Wool","text":"Wool","value":"Wool"},{"count":0,"name":"Fabric_all_categories","removeText":"Fabric_all_categories: bamboo","text":"bamboo","value":"bamboo"},{"count":0,"name":"Fabric_all_categories","removeText":"Fabric_all_categories: elastane","text":"elastane","value":"elastane"},{"count":0,"name":"Fabric_all_categories","removeText":"Fabric_all_categories: polyester","text":"polyester","value":"polyester"},{"count":0,"name":"Fabric_all_categories","removeText":"Fabric_all_categories: viscose","text":"viscose","value":"viscose"}]},{"name":"Color_all_categories","title":"Color_all_categories","facetValues":[{"count":0,"name":"Color_all_categories","removeText":"Color_all_categories: Animal print","text":"Animal print","value":"Animal print"},{"count":7,"name":"Color_all_categories","removeText":"Color_all_categories: Black","text":"Black","value":"Black"},{"count":2,"name":"Color_all_categories","removeText":"Color_all_categories: Black multi","text":"Black multi","value":"Black multi"},{"count":3,"name":"Color_all_categories","removeText":"Color_all_categories: Blue","text":"Blue","value":"Blue"},{"count":2,"name":"Color_all_categories","removeText":"Color_all_categories: Bronze","text":"Bronze","value":"Bronze"},{"count":5,"name":"Color_all_categories","removeText":"Color_all_categories: Brown","text":"Brown","value":"Brown"},{"count":3,"name":"Color_all_categories","removeText":"Color_all_categories: Burgundy","text":"Burgundy","value":"Burgundy"},{"count":1,"name":"Color_all_categories","removeText":"Color_all_categories: Camouflage","text":"Camouflage","value":"Camouflage"},{"count":0,"name":"Color_all_categories","removeText":"Color_all_categories: Clear","text":"Clear","value":"Clear"},{"count":3,"name":"Color_all_categories","removeText":"Color_all_categories: Coral","text":"Coral","value":"Coral"},{"count":1,"name":"Color_all_categories","removeText":"Color_all_categories: Fuchsia","text":"Fuchsia","value":"Fuchsia"},{"count":2,"name":"Color_all_categories","removeText":"Color_all_categories: Gold","text":"Gold","value":"Gold"},{"count":3,"name":"Color_all_categories","removeText":"Color_all_categories: Gray","text":"Gray","value":"Gray"},{"count":6,"name":"Color_all_categories","removeText":"Color_all_categories: Green","text":"Green","value":"Green"},{"count":4,"name":"Color_all_categories","removeText":"Color_all_categories: Ivory / cream","text":"Ivory / cream","value":"Ivory / cream"},{"count":3,"name":"Color_all_categories","removeText":"Color_all_categories: Khaki","text":"Khaki","value":"Khaki"},{"count":1,"name":"Color_all_categories","removeText":"Color_all_categories: Magenta","text":"Magenta","value":"Magenta"},{"count":3,"name":"Color_all_categories","removeText":"Color_all_categories: Mahogany","text":"Mahogany","value":"Mahogany"},{"count":3,"name":"Color_all_categories","removeText":"Color_all_categories: Metallic","text":"Metallic","value":"Metallic"},{"count":3,"name":"Color_all_categories","removeText":"Color_all_categories: Mint","text":"Mint","value":"Mint"},{"count":1,"name":"Color_all_categories","removeText":"Color_all_categories: Multi","text":"Multi","value":"Multi"},{"count":4,"name":"Color_all_categories","removeText":"Color_all_categories: Navy","text":"Navy","value":"Navy"},{"count":4,"name":"Color_all_categories","removeText":"Color_all_categories: Neutral","text":"Neutral","value":"Neutral"},{"count":4,"name":"Color_all_categories","removeText":"Color_all_categories: Olive green","text":"Olive green","value":"Olive green"},{"count":3,"name":"Color_all_categories","removeText":"Color_all_categories: Orange","text":"Orange","value":"Orange"},{"count":0,"name":"Color_all_categories","removeText":"Color_all_categories: Peach","text":"Peach","value":"Peach"},{"count":3,"name":"Color_all_categories","removeText":"Color_all_categories: Pewter","text":"Pewter","value":"Pewter"},{"count":4,"name":"Color_all_categories","removeText":"Color_all_categories: Pink","text":"Pink","value":"Pink"},{"count":3,"name":"Color_all_categories","removeText":"Color_all_categories: Purple","text":"Purple","value":"Purple"},{"count":5,"name":"Color_all_categories","removeText":"Color_all_categories: Red","text":"Red","value":"Red"},{"count":3,"name":"Color_all_categories","removeText":"Color_all_categories: Silver","text":"Silver","value":"Silver"},{"count":5,"name":"Color_all_categories","removeText":"Color_all_categories: Tan / beige","text":"Tan / beige","value":"Tan / beige"},{"count":3,"name":"Color_all_categories","removeText":"Color_all_categories: Taupe","text":"Taupe","value":"Taupe"},{"count":3,"name":"Color_all_categories","removeText":"Color_all_categories: Teal","text":"Teal","value":"Teal"},{"count":3,"name":"Color_all_categories","removeText":"Color_all_categories: Turquoise","text":"Turquoise","value":"Turquoise"},{"count":5,"name":"Color_all_categories","removeText":"Color_all_categories: White","text":"White","value":"White"},{"count":3,"name":"Color_all_categories","removeText":"Color_all_categories: Yellow","text":"Yellow","value":"Yellow"},{"count":0,"name":"Color_all_categories","removeText":"Color_all_categories: gold","text":"gold","value":"gold"},{"count":0,"name":"Color_all_categories","removeText":"Color_all_categories: navy","text":"navy","value":"navy"}]},{"name":"Customizable_all_categories","title":"Customizable_all_categories","facetValues":[{"count":6,"name":"Customizable_all_categories","removeText":"Customizable_all_categories: No","text":"No","value":"No"},{"count":13,"name":"Customizable_all_categories","removeText":"Customizable_all_categories: Yes","text":"Yes","value":"Yes"}]}],"Price":null,"Reviews":null}]}]}},"pageContext":{"pageCount":2,"currentPage":1,"url":"custom-clothing/skirts"}}}