{"componentChunkName":"component---src-templates-category-js","path":"/preview/samshek-shop/2","result":{"data":{"allAvettiCategory":{"nodes":[{"cid":"73945","url":"samshek-shop","name":"Samshek Shop","longdesc":"","meta":{"metadescription":"","metakeywords":""},"image":"/20180730431/assets/category/images/Banner_Samshek.jpg","itemsCount":"14","numberOfPages":"2","description":"","itemsFirstPage":[{"id":282247,"title":"Stunner in the Room Maxi","code":"AINZOYIAW0","desc":"Custom made party dress with off-shoulder cut","currency_sign":"$","image":"store/20180522154/assets/items/images/AINZOYIAW0.jpg","itemLargeImage":"store/20180522154/assets/items/largeimages/AINZOYIAW0.jpg","price":{"list_price":null,"value":{"integer":"89","decimal":"83"}},"url":"product/custom-clothing/dresses/stunner-in-the-room-maxi-ainzoyiaw0","properties":{"Sys_Num_Images":"2"}},{"id":282236,"title":"Oh My Sleek Green Evening Dress","code":"AINE1BITT0","desc":"Custom made green evening dress with ruffle sleeve","currency_sign":"$","image":"store/20180522154/assets/items/images/AINE1BITT0.jpg","itemLargeImage":"store/20180522154/assets/items/largeimages/AINE1BITT0.jpg","price":{"list_price":null,"value":{"integer":"78","decimal":"80"}},"url":"product/custom-clothing/dresses/oh-my-sleek-green-evening-dress-aine1bitt0","properties":{"Sys_Num_Images":"2"}},{"id":282232,"title":"A Modern Vision Dress","code":"AINYSC1MY2","desc":"Custom made monochrome dress with pleats","currency_sign":"$","image":"store/20180522154/assets/items/images/AINYSC1MY2.jpg","itemLargeImage":"store/20180522154/assets/items/largeimages/AINYSC1MY2.jpg","price":{"list_price":null,"value":{"integer":"89","decimal":"70"}},"url":"product/custom-clothing/dresses/a-modern-vision-dress-ainysc1my2","properties":{"Sys_Num_Images":"2"}},{"id":282251,"title":"Anywhere Is Away Dress","code":"AINHF42C83","desc":"Custom made gold silk dress with sequin embellishment","currency_sign":"$","image":"store/20180522154/assets/items/images/AINHF42C83.jpg","itemLargeImage":"store/20180522154/assets/items/largeimages/AINHF42C83.jpg","price":{"list_price":null,"value":{"integer":"85","decimal":"80"}},"url":"product/custom-clothing/dresses/anywhere-is-away-dress-ainhf42c83","properties":{"Sys_Num_Images":"2"}},{"id":282432,"title":"Blue Ruffle Evening Jumpsuit","code":"AINQIDN1D0","desc":"Custom made crepe jumpsuit with slimming cut","currency_sign":"$","image":"store/20180522154/assets/items/images/AINQIDN1D0.jpg","itemLargeImage":"store/20180522154/assets/items/largeimages/AINQIDN1D0.jpg","price":{"list_price":null,"value":{"integer":"96","decimal":"00"}},"url":"product/custom-clothing/jumpsuits-rompers/blue-ruffle-evening-jumpsuit-ainqidn1d0","properties":{"Sys_Num_Images":"3"}},{"id":282272,"title":"Ivory Tower Wrap Dress","code":"AINL24GX90","desc":"Custom made white midi with nautical themes","currency_sign":"$","image":"store/20180522154/assets/items/images/AINL24GX90.jpg","itemLargeImage":"store/20180522154/assets/items/largeimages/AINL24GX90.jpg","price":{"list_price":null,"value":{"integer":"88","decimal":"00"}},"url":"product/custom-clothing/dresses/ivory-tower-wrap-dress-ainl24gx90","properties":{"Sys_Num_Images":"2"}},{"id":282252,"title":"Just Enough Opposite Dress","code":"AINDPUGNI0","desc":"Custom made black fitted dress with ivory balloon sleeves","currency_sign":"$","image":"store/20180522154/assets/items/images/AINDPUGNI0.jpg","itemLargeImage":"store/20180522154/assets/items/largeimages/AINDPUGNI0.jpg","price":{"list_price":null,"value":{"integer":"81","decimal":"16"}},"url":"product/custom-clothing/dresses/just-enough-opposite-dress-aindpugni0","properties":{"Sys_Num_Images":"2"}},{"id":282235,"title":"My Feathers Ruffle Dress","code":"AINVE12323","desc":"Custom made party dress with ruffles","currency_sign":"$","image":"store/20180522154/assets/items/images/AINVE12323.jpg","itemLargeImage":"store/20180522154/assets/items/largeimages/AINVE12323.jpg","price":{"list_price":null,"value":{"integer":"99","decimal":"90"}},"url":"product/custom-clothing/dresses/my-feathers-ruffle-dress-ainve12323","properties":{"Sys_Num_Images":"3"}},{"id":282254,"title":"Other-Worldly Sequin Skirt","code":"AINW9AK1Q0","desc":"Custom made black and gold skirt with sequins","currency_sign":"$","image":"store/20180522154/assets/items/images/AINW9AK1Q0.jpg","itemLargeImage":"store/20180522154/assets/items/largeimages/AINW9AK1Q0.jpg","price":{"list_price":null,"value":{"integer":"98","decimal":"00"}},"url":"product/custom-clothing/skirts/other-worldly-sequin-skirt-ainw9ak1q0","properties":{"Sys_Num_Images":"3"}},{"id":282305,"title":"Royalty Only Black Dress","code":"AINH2P2J43","desc":"Custom made lace dress with gold embellishments","currency_sign":"$","image":"store/20180522154/assets/items/images/AINH2P2J43.jpg","itemLargeImage":"store/20180522154/assets/items/largeimages/AINH2P2J43.jpg","price":{"list_price":null,"value":{"integer":"84","decimal":"90"}},"url":"product/custom-clothing/dresses/royalty-only-black-dress-ainh2p2j43","properties":{"Sys_Num_Images":"2"}},{"id":282258,"title":"The Essential Buttondown","code":"AINEBIJUZ0","desc":"Custom made white buttondown with stylish balloon sleeves","currency_sign":"$","image":"store/20180522154/assets/items/images/AINEBIJUZ0.jpg","itemLargeImage":"store/20180522154/assets/items/largeimages/AINEBIJUZ0.jpg","price":{"list_price":null,"value":{"integer":"53","decimal":"50"}},"url":"product/custom-clothing/tops/the-essential-buttondown-ainebijuz0","properties":{"Sys_Num_Images":"4"}},{"id":282295,"title":"Unicorn Stripe Dress","code":"AINRXBIWA2","desc":"Custom made silk dress with luminous bodice stripe","currency_sign":"$","image":"store/20180522154/assets/items/images/AINRXBIWA2.jpg","itemLargeImage":"store/20180522154/assets/items/largeimages/AINRXBIWA2.jpg","price":{"list_price":null,"value":{"integer":"200","decimal":"00"}},"url":"product/custom-clothing/dresses/unicorn-stripe-dress-ainrxbiwa2","properties":{"Sys_Num_Images":"2"}}],"otherPages":{"_2":[{"id":282256,"title":"Veronica Blouse","code":"AIN2Z5IXU0","desc":"Custom made red silk top with side gathers","currency_sign":"$","image":"store/20180522154/assets/items/images/AIN2Z5IXU0.jpg","itemLargeImage":"store/20180522154/assets/items/largeimages/AIN2Z5IXU0.jpg","price":{"list_price":null,"value":{"integer":"51","decimal":"50"}},"url":"product/custom-clothing/tops/veronica-blouse-ain2z5ixu0","properties":{"Sys_Num_Images":"2"}},{"id":282234,"title":"What Everyone Wants Dress","code":"AING5OZ5W2","desc":"Custom made shift dress with button embellishments","currency_sign":"$","image":"store/20180522154/assets/items/images/AING5OZ5W2.jpg","itemLargeImage":"store/20180522154/assets/items/largeimages/AING5OZ5W2.jpg","price":{"list_price":null,"value":{"integer":"78","decimal":"90"}},"url":"product/custom-clothing/dresses/what-everyone-wants-dress-aing5oz5w2","properties":{"Sys_Num_Images":"2"}}],"_3":null,"_4":null,"_5":null,"_6":null,"_7":null,"_8":null,"_9":null,"_10":null},"facets":[{"Other":null,"Price":[{"count":6,"removeText":"Price: 0.00 - 84.99","text":"0.00 - 84.99","value":"[0.00 TO 84.99]"},{"count":7,"removeText":"Price: 85.00 - 99.99","text":"85.00 - 99.99","value":"[85.00 TO 99.99]"},{"count":1,"removeText":"Price: 100.00 - 949.99","text":"100.00 - 949.99","value":"[100.00 TO 949.99]"},{"count":0,"removeText":"Price: 1000.00 - 1499.99","text":"1000.00 - 1499.99","value":"[1000.00 TO 1499.99]"}],"Reviews":null},{"Other":null,"Price":null,"Reviews":[{"count":0,"removeText":"Review: 1 Stars","text":1,"value":"[0.5 TO 1.5]"},{"count":1,"removeText":"Review: 2 Stars","text":2,"value":"[1.5 TO 2.5]"},{"count":0,"removeText":"Review: 3 Stars","text":3,"value":"[2.5 TO 3.5]"},{"count":0,"removeText":"Review: 4 Stars","text":4,"value":"[3.5 TO 4.5]"},{"count":0,"removeText":"Review: 5 Stars","text":5,"value":"[4.5 TO 5.5]"}]},{"Other":[{"name":"Category","title":"Category","facetValues":[{"count":0,"name":"Category","removeText":"Category: Accessories","text":"Accessories","value":"Accessories"},{"count":0,"name":"Category","removeText":"Category: Bags","text":"Bags","value":"Bags"},{"count":0,"name":"Category","removeText":"Category: Belts","text":"Belts","value":"Belts"},{"count":0,"name":"Category","removeText":"Category: Clothing","text":"Clothing","value":"Clothing"},{"count":0,"name":"Category","removeText":"Category: Dresses","text":"Dresses","value":"Dresses"},{"count":0,"name":"Category","removeText":"Category: Intimates","text":"Intimates","value":"Intimates"},{"count":0,"name":"Category","removeText":"Category: Jackets & Coats","text":"Jackets & Coats","value":"Jackets & Coats"},{"count":0,"name":"Category","removeText":"Category: Jeans","text":"Jeans","value":"Jeans"},{"count":0,"name":"Category","removeText":"Category: Jewelry","text":"Jewelry","value":"Jewelry"},{"count":0,"name":"Category","removeText":"Category: Jumpsuits & Rompers","text":"Jumpsuits & Rompers","value":"Jumpsuits & Rompers"},{"count":0,"name":"Category","removeText":"Category: Pant Suits","text":"Pant Suits","value":"Pant Suits"},{"count":0,"name":"Category","removeText":"Category: Pants","text":"Pants","value":"Pants"},{"count":0,"name":"Category","removeText":"Category: Short Suits","text":"Short Suits","value":"Short Suits"},{"count":0,"name":"Category","removeText":"Category: Shorts","text":"Shorts","value":"Shorts"},{"count":0,"name":"Category","removeText":"Category: Skirt Suits","text":"Skirt Suits","value":"Skirt Suits"},{"count":0,"name":"Category","removeText":"Category: Skirts","text":"Skirts","value":"Skirts"},{"count":0,"name":"Category","removeText":"Category: Special Occasion","text":"Special Occasion","value":"Special Occasion"},{"count":0,"name":"Category","removeText":"Category: Sweaters","text":"Sweaters","value":"Sweaters"},{"count":0,"name":"Category","removeText":"Category: Test","text":"Test","value":"Test"},{"count":0,"name":"Category","removeText":"Category: Tops","text":"Tops","value":"Tops"},{"count":0,"name":"Category","removeText":"Category: Women Tuxedos","text":"Women Tuxedos","value":"Women Tuxedos"},{"count":0,"name":"Category","removeText":"Category: aa3","text":"aa3","value":"aa3"},{"count":0,"name":"Category","removeText":"Category: test\"cc\"dd","text":"test\"cc\"dd","value":"test\"cc\"dd"}]},{"name":"Body_Type_all_categories","title":"Body_Type_all_categories","facetValues":[{"count":7,"name":"Body_Type_all_categories","removeText":"Body_Type_all_categories: Apple","text":"Apple","value":"Apple"},{"count":10,"name":"Body_Type_all_categories","removeText":"Body_Type_all_categories: Athletic","text":"Athletic","value":"Athletic"},{"count":14,"name":"Body_Type_all_categories","removeText":"Body_Type_all_categories: Average","text":"Average","value":"Average"},{"count":4,"name":"Body_Type_all_categories","removeText":"Body_Type_all_categories: Busty","text":"Busty","value":"Busty"},{"count":14,"name":"Body_Type_all_categories","removeText":"Body_Type_all_categories: Hourglass","text":"Hourglass","value":"Hourglass"},{"count":14,"name":"Body_Type_all_categories","removeText":"Body_Type_all_categories: Lanky","text":"Lanky","value":"Lanky"},{"count":11,"name":"Body_Type_all_categories","removeText":"Body_Type_all_categories: Pear","text":"Pear","value":"Pear"},{"count":0,"name":"Body_Type_all_categories","removeText":"Body_Type_all_categories: Petite Hourglass","text":"Petite Hourglass","value":"Petite Hourglass"},{"count":13,"name":"Body_Type_all_categories","removeText":"Body_Type_all_categories: Petite hourglass","text":"Petite hourglass","value":"Petite hourglass"},{"count":0,"name":"Body_Type_all_categories","removeText":"Body_Type_all_categories: Pregnant","text":"Pregnant","value":"Pregnant"},{"count":6,"name":"Body_Type_all_categories","removeText":"Body_Type_all_categories: Square","text":"Square","value":"Square"},{"count":0,"name":"Body_Type_all_categories","removeText":"Body_Type_all_categories: Thin / Slender","text":"Thin / Slender","value":"Thin / Slender"},{"count":13,"name":"Body_Type_all_categories","removeText":"Body_Type_all_categories: Thin / slender","text":"Thin / slender","value":"Thin / slender"}]},{"name":"Fabric_all_categories","title":"Fabric_all_categories","facetValues":[{"count":0,"name":"Fabric_all_categories","removeText":"Fabric_all_categories: Acrylic","text":"Acrylic","value":"Acrylic"},{"count":0,"name":"Fabric_all_categories","removeText":"Fabric_all_categories: Brocade","text":"Brocade","value":"Brocade"},{"count":0,"name":"Fabric_all_categories","removeText":"Fabric_all_categories: Chiffon","text":"Chiffon","value":"Chiffon"},{"count":0,"name":"Fabric_all_categories","removeText":"Fabric_all_categories: Chintz","text":"Chintz","value":"Chintz"},{"count":0,"name":"Fabric_all_categories","removeText":"Fabric_all_categories: Corduroy","text":"Corduroy","value":"Corduroy"},{"count":4,"name":"Fabric_all_categories","removeText":"Fabric_all_categories: Cotton","text":"Cotton","value":"Cotton"},{"count":4,"name":"Fabric_all_categories","removeText":"Fabric_all_categories: Crepe","text":"Crepe","value":"Crepe"},{"count":0,"name":"Fabric_all_categories","removeText":"Fabric_all_categories: Denim","text":"Denim","value":"Denim"},{"count":0,"name":"Fabric_all_categories","removeText":"Fabric_all_categories: Elastane","text":"Elastane","value":"Elastane"},{"count":0,"name":"Fabric_all_categories","removeText":"Fabric_all_categories: Faux fur","text":"Faux fur","value":"Faux fur"},{"count":0,"name":"Fabric_all_categories","removeText":"Fabric_all_categories: Flax","text":"Flax","value":"Flax"},{"count":0,"name":"Fabric_all_categories","removeText":"Fabric_all_categories: Fleece","text":"Fleece","value":"Fleece"},{"count":0,"name":"Fabric_all_categories","removeText":"Fabric_all_categories: Georgette","text":"Georgette","value":"Georgette"},{"count":0,"name":"Fabric_all_categories","removeText":"Fabric_all_categories: Hemp","text":"Hemp","value":"Hemp"},{"count":1,"name":"Fabric_all_categories","removeText":"Fabric_all_categories: Jersey","text":"Jersey","value":"Jersey"},{"count":1,"name":"Fabric_all_categories","removeText":"Fabric_all_categories: Lace","text":"Lace","value":"Lace"},{"count":0,"name":"Fabric_all_categories","removeText":"Fabric_all_categories: Leather","text":"Leather","value":"Leather"},{"count":0,"name":"Fabric_all_categories","removeText":"Fabric_all_categories: Linen","text":"Linen","value":"Linen"},{"count":0,"name":"Fabric_all_categories","removeText":"Fabric_all_categories: Lycra","text":"Lycra","value":"Lycra"},{"count":0,"name":"Fabric_all_categories","removeText":"Fabric_all_categories: Metallic","text":"Metallic","value":"Metallic"},{"count":0,"name":"Fabric_all_categories","removeText":"Fabric_all_categories: Neoprene","text":"Neoprene","value":"Neoprene"},{"count":0,"name":"Fabric_all_categories","removeText":"Fabric_all_categories: Nylon","text":"Nylon","value":"Nylon"},{"count":0,"name":"Fabric_all_categories","removeText":"Fabric_all_categories: Organza","text":"Organza","value":"Organza"},{"count":0,"name":"Fabric_all_categories","removeText":"Fabric_all_categories: Plastic","text":"Plastic","value":"Plastic"},{"count":3,"name":"Fabric_all_categories","removeText":"Fabric_all_categories: Polyester","text":"Polyester","value":"Polyester"},{"count":0,"name":"Fabric_all_categories","removeText":"Fabric_all_categories: Rayon","text":"Rayon","value":"Rayon"},{"count":1,"name":"Fabric_all_categories","removeText":"Fabric_all_categories: Satin","text":"Satin","value":"Satin"},{"count":0,"name":"Fabric_all_categories","removeText":"Fabric_all_categories: Seersucker","text":"Seersucker","value":"Seersucker"},{"count":2,"name":"Fabric_all_categories","removeText":"Fabric_all_categories: Sequins","text":"Sequins","value":"Sequins"},{"count":5,"name":"Fabric_all_categories","removeText":"Fabric_all_categories: Silk","text":"Silk","value":"Silk"},{"count":0,"name":"Fabric_all_categories","removeText":"Fabric_all_categories: Spandex","text":"Spandex","value":"Spandex"},{"count":0,"name":"Fabric_all_categories","removeText":"Fabric_all_categories: Taffeta","text":"Taffeta","value":"Taffeta"},{"count":0,"name":"Fabric_all_categories","removeText":"Fabric_all_categories: Tulle","text":"Tulle","value":"Tulle"},{"count":0,"name":"Fabric_all_categories","removeText":"Fabric_all_categories: Tweed","text":"Tweed","value":"Tweed"},{"count":0,"name":"Fabric_all_categories","removeText":"Fabric_all_categories: Vegan leather","text":"Vegan leather","value":"Vegan leather"},{"count":0,"name":"Fabric_all_categories","removeText":"Fabric_all_categories: Velvet","text":"Velvet","value":"Velvet"},{"count":2,"name":"Fabric_all_categories","removeText":"Fabric_all_categories: Viscose","text":"Viscose","value":"Viscose"},{"count":0,"name":"Fabric_all_categories","removeText":"Fabric_all_categories: Wool","text":"Wool","value":"Wool"},{"count":0,"name":"Fabric_all_categories","removeText":"Fabric_all_categories: bamboo","text":"bamboo","value":"bamboo"},{"count":0,"name":"Fabric_all_categories","removeText":"Fabric_all_categories: elastane","text":"elastane","value":"elastane"},{"count":0,"name":"Fabric_all_categories","removeText":"Fabric_all_categories: polyester","text":"polyester","value":"polyester"},{"count":0,"name":"Fabric_all_categories","removeText":"Fabric_all_categories: viscose","text":"viscose","value":"viscose"}]},{"name":"Color_all_categories","title":"Color_all_categories","facetValues":[{"count":0,"name":"Color_all_categories","removeText":"Color_all_categories: Animal print","text":"Animal print","value":"Animal print"},{"count":6,"name":"Color_all_categories","removeText":"Color_all_categories: Black","text":"Black","value":"Black"},{"count":2,"name":"Color_all_categories","removeText":"Color_all_categories: Black multi","text":"Black multi","value":"Black multi"},{"count":2,"name":"Color_all_categories","removeText":"Color_all_categories: Blue","text":"Blue","value":"Blue"},{"count":0,"name":"Color_all_categories","removeText":"Color_all_categories: Bronze","text":"Bronze","value":"Bronze"},{"count":0,"name":"Color_all_categories","removeText":"Color_all_categories: Brown","text":"Brown","value":"Brown"},{"count":1,"name":"Color_all_categories","removeText":"Color_all_categories: Burgundy","text":"Burgundy","value":"Burgundy"},{"count":0,"name":"Color_all_categories","removeText":"Color_all_categories: Camouflage","text":"Camouflage","value":"Camouflage"},{"count":0,"name":"Color_all_categories","removeText":"Color_all_categories: Clear","text":"Clear","value":"Clear"},{"count":0,"name":"Color_all_categories","removeText":"Color_all_categories: Coral","text":"Coral","value":"Coral"},{"count":0,"name":"Color_all_categories","removeText":"Color_all_categories: Fuchsia","text":"Fuchsia","value":"Fuchsia"},{"count":1,"name":"Color_all_categories","removeText":"Color_all_categories: Gold","text":"Gold","value":"Gold"},{"count":0,"name":"Color_all_categories","removeText":"Color_all_categories: Gray","text":"Gray","value":"Gray"},{"count":2,"name":"Color_all_categories","removeText":"Color_all_categories: Green","text":"Green","value":"Green"},{"count":0,"name":"Color_all_categories","removeText":"Color_all_categories: Ivory / cream","text":"Ivory / cream","value":"Ivory / cream"},{"count":0,"name":"Color_all_categories","removeText":"Color_all_categories: Khaki","text":"Khaki","value":"Khaki"},{"count":0,"name":"Color_all_categories","removeText":"Color_all_categories: Magenta","text":"Magenta","value":"Magenta"},{"count":0,"name":"Color_all_categories","removeText":"Color_all_categories: Mahogany","text":"Mahogany","value":"Mahogany"},{"count":0,"name":"Color_all_categories","removeText":"Color_all_categories: Metallic","text":"Metallic","value":"Metallic"},{"count":0,"name":"Color_all_categories","removeText":"Color_all_categories: Mint","text":"Mint","value":"Mint"},{"count":0,"name":"Color_all_categories","removeText":"Color_all_categories: Multi","text":"Multi","value":"Multi"},{"count":1,"name":"Color_all_categories","removeText":"Color_all_categories: Navy","text":"Navy","value":"Navy"},{"count":0,"name":"Color_all_categories","removeText":"Color_all_categories: Neutral","text":"Neutral","value":"Neutral"},{"count":0,"name":"Color_all_categories","removeText":"Color_all_categories: Olive green","text":"Olive green","value":"Olive green"},{"count":0,"name":"Color_all_categories","removeText":"Color_all_categories: Orange","text":"Orange","value":"Orange"},{"count":0,"name":"Color_all_categories","removeText":"Color_all_categories: Peach","text":"Peach","value":"Peach"},{"count":0,"name":"Color_all_categories","removeText":"Color_all_categories: Pewter","text":"Pewter","value":"Pewter"},{"count":1,"name":"Color_all_categories","removeText":"Color_all_categories: Pink","text":"Pink","value":"Pink"},{"count":1,"name":"Color_all_categories","removeText":"Color_all_categories: Purple","text":"Purple","value":"Purple"},{"count":3,"name":"Color_all_categories","removeText":"Color_all_categories: Red","text":"Red","value":"Red"},{"count":0,"name":"Color_all_categories","removeText":"Color_all_categories: Silver","text":"Silver","value":"Silver"},{"count":0,"name":"Color_all_categories","removeText":"Color_all_categories: Tan / beige","text":"Tan / beige","value":"Tan / beige"},{"count":0,"name":"Color_all_categories","removeText":"Color_all_categories: Taupe","text":"Taupe","value":"Taupe"},{"count":0,"name":"Color_all_categories","removeText":"Color_all_categories: Teal","text":"Teal","value":"Teal"},{"count":0,"name":"Color_all_categories","removeText":"Color_all_categories: Turquoise","text":"Turquoise","value":"Turquoise"},{"count":5,"name":"Color_all_categories","removeText":"Color_all_categories: White","text":"White","value":"White"},{"count":1,"name":"Color_all_categories","removeText":"Color_all_categories: Yellow","text":"Yellow","value":"Yellow"},{"count":0,"name":"Color_all_categories","removeText":"Color_all_categories: gold","text":"gold","value":"gold"},{"count":0,"name":"Color_all_categories","removeText":"Color_all_categories: navy","text":"navy","value":"navy"}]},{"name":"Customizable_all_categories","title":"Customizable_all_categories","facetValues":[{"count":0,"name":"Customizable_all_categories","removeText":"Customizable_all_categories: No","text":"No","value":"No"},{"count":14,"name":"Customizable_all_categories","removeText":"Customizable_all_categories: Yes","text":"Yes","value":"Yes"}]}],"Price":null,"Reviews":null}]}]}},"pageContext":{"pageCount":2,"currentPage":2,"url":"samshek-shop"}}}